%YAML 1.1
%TAG !u! tag:unity3d.com,2011:
--- !u!114 &11400000
MonoBehaviour:
  m_ObjectHideFlags: 0
  m_CorrespondingSourceObject: {fileID: 0}
  m_PrefabInternal: {fileID: 0}
  m_GameObject: {fileID: 0}
  m_Enabled: 1
  m_EditorHideFlags: 0
  m_Script: {fileID: 11500000, guid: 609e6c3bd0a36cc4cb27da951d5850c0, type: 3}
  m_Name: DemoCatalog
  m_EditorClassIdentifier: 
  categories:
  - name: White Magic
    entries:
    - Cure
    - Raise
    - Holy
    - Esuna
  - name: Sagacity Skill
    entries:
    - Water
    - Blind
    - Drain
