%YAML 1.1
%TAG !u! tag:unity3d.com,2011:
--- !u!114 &11400000
MonoBehaviour:
  m_ObjectHideFlags: 0
  m_CorrespondingSourceObject: {fileID: 0}
  m_PrefabInternal: {fileID: 0}
  m_GameObject: {fileID: 0}
  m_Enabled: 1
  m_EditorHideFlags: 0
  m_Script: {fileID: 11500000, guid: 37c4cb0a5f519704ba6d1ba52a0a0483, type: 3}
  m_Name: Nivel prueba aqui hola
  m_EditorClassIdentifier: 
  tiles:
  - {x: 26, y: 2, z: 1}
  - {x: 27, y: 2, z: 1}
  - {x: 28, y: 2, z: 1}
  - {x: 29, y: 2, z: 1}
  - {x: 30, y: 2, z: 1}
  - {x: 31, y: 2, z: 1}
  - {x: 32, y: 2, z: 1}
  - {x: 33, y: 2, z: 1}
  - {x: 34, y: 2, z: 1}
  - {x: 35, y: 2, z: 1}
  - {x: 36, y: 2, z: 1}
  - {x: 37, y: 2, z: 1}
  - {x: 38, y: 2, z: 1}
  - {x: 39, y: 3, z: 1}
  - {x: 40, y: 3, z: 1}
  - {x: 41, y: 3, z: 1}
  - {x: 42, y: 2, z: 1}
  - {x: 43, y: 3, z: 1}
  - {x: 44, y: 3, z: 1}
  - {x: 26, y: 3, z: 2}
  - {x: 27, y: 3, z: 2}
  - {x: 28, y: 3, z: 2}
  - {x: 29, y: 3, z: 2}
  - {x: 30, y: 3, z: 2}
  - {x: 31, y: 3, z: 2}
  - {x: 32, y: 3, z: 2}
  - {x: 33, y: 3, z: 2}
  - {x: 34, y: 3, z: 2}
  - {x: 35, y: 3, z: 2}
  - {x: 36, y: 3, z: 2}
  - {x: 37, y: 2, z: 2}
  - {x: 38, y: 2, z: 2}
  - {x: 39, y: 3, z: 2}
  - {x: 40, y: 3, z: 2}
  - {x: 41, y: 3, z: 2}
  - {x: 42, y: 2, z: 2}
  - {x: 43, y: 3, z: 2}
  - {x: 44, y: 3, z: 2}
  - {x: 26, y: 3, z: 3}
  - {x: 27, y: 3, z: 3}
  - {x: 28, y: 3, z: 3}
  - {x: 29, y: 3, z: 3}
  - {x: 30, y: 3, z: 3}
  - {x: 31, y: 3, z: 3}
  - {x: 32, y: 3, z: 3}
  - {x: 33, y: 3, z: 3}
  - {x: 34, y: 3, z: 3}
  - {x: 35, y: 3, z: 3}
  - {x: 36, y: 3, z: 3}
  - {x: 37, y: 3, z: 3}
  - {x: 38, y: 3, z: 3}
  - {x: 39, y: 4, z: 3}
  - {x: 40, y: 4, z: 3}
  - {x: 41, y: 4, z: 3}
  - {x: 42, y: 3, z: 3}
  - {x: 43, y: 4, z: 3}
  - {x: 44, y: 4, z: 3}
  - {x: 26, y: 4, z: 4}
  - {x: 27, y: 4, z: 4}
  - {x: 28, y: 4, z: 4}
  - {x: 29, y: 3, z: 4}
  - {x: 30, y: 3, z: 4}
  - {x: 31, y: 3, z: 4}
  - {x: 32, y: 3, z: 4}
  - {x: 33, y: 3, z: 4}
  - {x: 34, y: 3, z: 4}
  - {x: 35, y: 3, z: 4}
  - {x: 36, y: 3, z: 4}
  - {x: 37, y: 3, z: 4}
  - {x: 38, y: 3, z: 4}
  - {x: 39, y: 4, z: 4}
  - {x: 40, y: 4, z: 4}
  - {x: 41, y: 4, z: 4}
  - {x: 42, y: 3, z: 4}
  - {x: 43, y: 4, z: 4}
  - {x: 44, y: 4, z: 4}
  - {x: 26, y: 3, z: 5}
  - {x: 27, y: 3, z: 5}
  - {x: 28, y: 3, z: 5}
  - {x: 29, y: 2, z: 5}
  - {x: 30, y: 2, z: 5}
  - {x: 31, y: 2, z: 5}
  - {x: 32, y: 2, z: 5}
  - {x: 33, y: 2, z: 5}
  - {x: 34, y: 2, z: 5}
  - {x: 35, y: 2, z: 5}
  - {x: 36, y: 2, z: 5}
  - {x: 37, y: 2, z: 5}
  - {x: 38, y: 2, z: 5}
  - {x: 39, y: 3, z: 5}
  - {x: 40, y: 3, z: 5}
  - {x: 41, y: 3, z: 5}
  - {x: 42, y: 3, z: 5}
  - {x: 43, y: 4, z: 5}
  - {x: 44, y: 4, z: 5}
  - {x: 26, y: 5, z: 6}
  - {x: 27, y: 5, z: 6}
  - {x: 28, y: 5, z: 6}
  - {x: 29, y: 4, z: 6}
  - {x: 30, y: 4, z: 6}
  - {x: 31, y: 4, z: 6}
  - {x: 32, y: 4, z: 6}
  - {x: 33, y: 4, z: 6}
  - {x: 34, y: 3, z: 6}
  - {x: 35, y: 3, z: 6}
  - {x: 36, y: 3, z: 6}
  - {x: 37, y: 3, z: 6}
  - {x: 38, y: 3, z: 6}
  - {x: 39, y: 4, z: 6}
  - {x: 40, y: 4, z: 6}
  - {x: 41, y: 4, z: 6}
  - {x: 42, y: 4, z: 6}
  - {x: 43, y: 5, z: 6}
  - {x: 44, y: 5, z: 6}
  - {x: 26, y: 5, z: 7}
  - {x: 27, y: 5, z: 7}
  - {x: 28, y: 4, z: 7}
  - {x: 29, y: 3, z: 7}
  - {x: 30, y: 3, z: 7}
  - {x: 31, y: 3, z: 7}
  - {x: 32, y: 3, z: 7}
  - {x: 33, y: 3, z: 7}
  - {x: 34, y: 3, z: 7}
  - {x: 35, y: 3, z: 7}
  - {x: 36, y: 3, z: 7}
  - {x: 37, y: 3, z: 7}
  - {x: 38, y: 3, z: 7}
  - {x: 39, y: 4, z: 7}
  - {x: 40, y: 4, z: 7}
  - {x: 41, y: 4, z: 7}
  - {x: 42, y: 4, z: 7}
  - {x: 43, y: 5, z: 7}
  - {x: 44, y: 5, z: 7}
  - {x: 26, y: 5, z: 8}
  - {x: 27, y: 5, z: 8}
  - {x: 28, y: 4, z: 8}
  - {x: 29, y: 3, z: 8}
  - {x: 30, y: 3, z: 8}
  - {x: 31, y: 3, z: 8}
  - {x: 32, y: 3, z: 8}
  - {x: 33, y: 3, z: 8}
  - {x: 34, y: 3, z: 8}
  - {x: 35, y: 3, z: 8}
  - {x: 36, y: 3, z: 8}
  - {x: 37, y: 3, z: 8}
  - {x: 38, y: 3, z: 8}
  - {x: 39, y: 4, z: 8}
  - {x: 40, y: 4, z: 8}
  - {x: 41, y: 4, z: 8}
  - {x: 42, y: 4, z: 8}
  - {x: 43, y: 5, z: 8}
  - {x: 44, y: 5, z: 8}
  - {x: 26, y: 5, z: 9}
  - {x: 27, y: 5, z: 9}
  - {x: 28, y: 4, z: 9}
  - {x: 29, y: 3, z: 9}
  - {x: 30, y: 3, z: 9}
  - {x: 31, y: 3, z: 9}
  - {x: 32, y: 4, z: 9}
  - {x: 33, y: 4, z: 9}
  - {x: 34, y: 4, z: 9}
  - {x: 35, y: 3, z: 9}
  - {x: 36, y: 3, z: 9}
  - {x: 37, y: 3, z: 9}
  - {x: 38, y: 3, z: 9}
  - {x: 39, y: 4, z: 9}
  - {x: 40, y: 4, z: 9}
  - {x: 41, y: 4, z: 9}
  - {x: 42, y: 4, z: 9}
  - {x: 43, y: 5, z: 9}
  - {x: 44, y: 5, z: 9}
  - {x: 26, y: 5, z: 10}
  - {x: 27, y: 5, z: 10}
  - {x: 28, y: 5, z: 10}
  - {x: 29, y: 4, z: 10}
  - {x: 30, y: 4, z: 10}
  - {x: 31, y: 4, z: 10}
  - {x: 32, y: 5, z: 10}
  - {x: 33, y: 5, z: 10}
  - {x: 34, y: 5, z: 10}
  - {x: 35, y: 4, z: 10}
  - {x: 36, y: 4, z: 10}
  - {x: 37, y: 4, z: 10}
  - {x: 38, y: 4, z: 10}
  - {x: 39, y: 5, z: 10}
  - {x: 40, y: 5, z: 10}
  - {x: 41, y: 5, z: 10}
  - {x: 42, y: 4, z: 10}
  - {x: 43, y: 5, z: 10}
  - {x: 44, y: 5, z: 10}
  - {x: 12, y: 1, z: 0}
  - {x: 13, y: 1, z: 0}
  - {x: 14, y: 1, z: 0}
  - {x: 15, y: 1, z: 0}
  - {x: 16, y: 1, z: 0}
  - {x: 17, y: 1, z: 0}
  - {x: 12, y: 1, z: 1}
  - {x: 13, y: 1, z: 1}
  - {x: 14, y: 1, z: 1}
  - {x: 15, y: 1, z: 1}
  - {x: 16, y: 1, z: 1}
  - {x: 17, y: 1, z: 1}
  - {x: 12, y: 1, z: 2}
  - {x: 13, y: 2, z: 2}
  - {x: 14, y: 2, z: 2}
  - {x: 15, y: 3, z: 2}
  - {x: 16, y: 3, z: 2}
  - {x: 17, y: 2, z: 2}
  - {x: 12, y: 2, z: 3}
  - {x: 13, y: 2, z: 3}
  - {x: 14, y: 2, z: 3}
  - {x: 15, y: 3, z: 3}
  - {x: 16, y: 3, z: 3}
  - {x: 17, y: 2, z: 3}
  - {x: 12, y: 2, z: 4}
  - {x: 13, y: 2, z: 4}
  - {x: 14, y: 2, z: 4}
  - {x: 15, y: 3, z: 4}
  - {x: 16, y: 3, z: 4}
  - {x: 17, y: 2, z: 4}
  - {x: 12, y: 4, z: 5}
  - {x: 13, y: 4, z: 5}
  - {x: 14, y: 4, z: 5}
  - {x: 15, y: 5, z: 5}
  - {x: 16, y: 5, z: 5}
  - {x: 17, y: 4, z: 5}
  - {x: 41, y: 5, z: 11}
  - {x: 42, y: 5, z: 11}
  - {x: 43, y: 5, z: 11}
  - {x: 44, y: 5, z: 11}
  - {x: 45, y: 5, z: 11}
  - {x: 46, y: 5, z: 11}
  - {x: 47, y: 5, z: 11}
  - {x: 48, y: 5, z: 11}
  - {x: 49, y: 4, z: 11}
  - {x: 41, y: 5, z: 12}
  - {x: 42, y: 4, z: 12}
  - {x: 43, y: 5, z: 12}
  - {x: 44, y: 4, z: 12}
  - {x: 45, y: 4, z: 12}
  - {x: 46, y: 4, z: 12}
  - {x: 47, y: 3, z: 12}
  - {x: 48, y: 3, z: 12}
  - {x: 49, y: 2, z: 12}
  - {x: 4, y: 1, z: 13}
  - {x: 5, y: 2, z: 13}
  - {x: 6, y: 2, z: 13}
  - {x: 7, y: 2, z: 13}
  - {x: 8, y: 2, z: 13}
  - {x: 9, y: 2, z: 13}
  - {x: 10, y: 2, z: 13}
  - {x: 11, y: 2, z: 13}
  - {x: 12, y: 2, z: 13}
  - {x: 13, y: 2, z: 13}
  - {x: 14, y: 3, z: 13}
  - {x: 15, y: 3, z: 13}
  - {x: 16, y: 4, z: 13}
  - {x: 17, y: 4, z: 13}
  - {x: 18, y: 5, z: 13}
  - {x: 19, y: 5, z: 13}
  - {x: 20, y: 5, z: 13}
  - {x: 21, y: 5, z: 13}
  - {x: 22, y: 5, z: 13}
  - {x: 23, y: 5, z: 13}
  - {x: 24, y: 5, z: 13}
  - {x: 25, y: 5, z: 13}
  - {x: 26, y: 5, z: 13}
  - {x: 27, y: 5, z: 13}
  - {x: 28, y: 5, z: 13}
  - {x: 29, y: 4, z: 13}
  - {x: 30, y: 4, z: 13}
  - {x: 31, y: 4, z: 13}
  - {x: 32, y: 5, z: 13}
  - {x: 25, y: 4, z: 6}
  - {x: 6, y: 2, z: 5}
  - {x: 7, y: 2, z: 5}
  - {x: 8, y: 2, z: 5}
  - {x: 9, y: 3, z: 5}
  - {x: 10, y: 3, z: 5}
  - {x: 11, y: 3, z: 5}
  - {x: 18, y: 3, z: 5}
  - {x: 6, y: 3, z: 6}
  - {x: 7, y: 3, z: 6}
  - {x: 8, y: 3, z: 6}
  - {x: 9, y: 4, z: 6}
  - {x: 10, y: 4, z: 6}
  - {x: 11, y: 4, z: 6}
  - {x: 12, y: 4, z: 6}
  - {x: 13, y: 4, z: 6}
  - {x: 14, y: 4, z: 6}
  - {x: 15, y: 5, z: 6}
  - {x: 16, y: 5, z: 6}
  - {x: 17, y: 4, z: 6}
  - {x: 18, y: 4, z: 6}
  - {x: 6, y: 2, z: 7}
  - {x: 7, y: 2, z: 7}
  - {x: 8, y: 2, z: 7}
  - {x: 9, y: 3, z: 7}
  - {x: 10, y: 3, z: 7}
  - {x: 11, y: 3, z: 7}
  - {x: 12, y: 3, z: 7}
  - {x: 13, y: 3, z: 7}
  - {x: 14, y: 3, z: 7}
  - {x: 15, y: 3, z: 7}
  - {x: 16, y: 3, z: 7}
  - {x: 17, y: 3, z: 7}
  - {x: 18, y: 5, z: 7}
  - {x: 6, y: 2, z: 8}
  - {x: 7, y: 2, z: 8}
  - {x: 8, y: 2, z: 8}
  - {x: 9, y: 3, z: 8}
  - {x: 10, y: 3, z: 8}
  - {x: 11, y: 3, z: 8}
  - {x: 12, y: 3, z: 8}
  - {x: 13, y: 3, z: 8}
  - {x: 14, y: 3, z: 8}
  - {x: 15, y: 3, z: 8}
  - {x: 16, y: 3, z: 8}
  - {x: 17, y: 3, z: 8}
  - {x: 18, y: 5, z: 8}
  - {x: 6, y: 3, z: 9}
  - {x: 7, y: 3, z: 9}
  - {x: 8, y: 3, z: 9}
  - {x: 9, y: 4, z: 9}
  - {x: 10, y: 4, z: 9}
  - {x: 11, y: 4, z: 9}
  - {x: 12, y: 4, z: 9}
  - {x: 13, y: 4, z: 9}
  - {x: 14, y: 4, z: 9}
  - {x: 15, y: 4, z: 9}
  - {x: 16, y: 4, z: 9}
  - {x: 17, y: 4, z: 9}
  - {x: 18, y: 5, z: 9}
  - {x: 24, y: 5, z: 7}
  - {x: 25, y: 4, z: 7}
  - {x: 45, y: 4, z: 7}
  - {x: 46, y: 3, z: 7}
  - {x: 47, y: 2, z: 7}
  - {x: 24, y: 5, z: 8}
  - {x: 25, y: 5, z: 8}
  - {x: 45, y: 4, z: 8}
  - {x: 46, y: 3, z: 8}
  - {x: 47, y: 2, z: 8}
  - {x: 40, y: 5, z: 11}
  - {x: 40, y: 5, z: 12}
  - {x: 40, y: 4, z: 13}
  - {x: 41, y: 4, z: 13}
  - {x: 42, y: 2, z: 13}
  - {x: 43, y: 3, z: 13}
  - {x: 44, y: 2, z: 13}
  - {x: 45, y: 2, z: 13}
  - {x: 46, y: 2, z: 13}
  - {x: 47, y: 2, z: 13}
  - {x: 48, y: 2, z: 13}
  - {x: 25, y: 5, z: 9}
  - {x: 25, y: 5, z: 10}
  - {x: 24, y: 5, z: 10}
  - {x: 24, y: 5, z: 11}
  - {x: 25, y: 5, z: 11}
  - {x: 26, y: 5, z: 11}
  - {x: 27, y: 5, z: 11}
  - {x: 28, y: 5, z: 11}
  - {x: 29, y: 4, z: 11}
  - {x: 30, y: 4, z: 11}
  - {x: 31, y: 4, z: 11}
  - {x: 32, y: 5, z: 11}
  - {x: 33, y: 5, z: 11}
  - {x: 34, y: 5, z: 11}
  - {x: 35, y: 4, z: 11}
  - {x: 36, y: 4, z: 11}
  - {x: 37, y: 4, z: 11}
  - {x: 38, y: 4, z: 11}
  - {x: 39, y: 5, z: 11}
  - {x: 24, y: 5, z: 12}
  - {x: 25, y: 5, z: 12}
  - {x: 26, y: 5, z: 12}
  - {x: 27, y: 5, z: 12}
  - {x: 28, y: 5, z: 12}
  - {x: 29, y: 5, z: 12}
  - {x: 30, y: 5, z: 12}
  - {x: 31, y: 5, z: 12}
  - {x: 32, y: 5, z: 12}
  - {x: 33, y: 5, z: 12}
  - {x: 34, y: 5, z: 12}
  - {x: 35, y: 4, z: 12}
  - {x: 36, y: 4, z: 12}
  - {x: 37, y: 4, z: 12}
  - {x: 38, y: 4, z: 12}
  - {x: 39, y: 4, z: 12}
  - {x: 33, y: 4, z: 13}
  - {x: 34, y: 4, z: 13}
  - {x: 35, y: 3, z: 13}
  - {x: 36, y: 3, z: 13}
  - {x: 37, y: 3, z: 13}
  - {x: 38, y: 3, z: 13}
  - {x: 39, y: 3, z: 13}
  - {x: 47, y: 4, z: 10}
  - {x: 48, y: 4, z: 10}
  - {x: 45, y: 3, z: 1}
  - {x: 46, y: 2, z: 1}
  - {x: 47, y: 2, z: 1}
  - {x: 48, y: 1, z: 1}
  - {x: 49, y: 1, z: 1}
  - {x: 45, y: 3, z: 2}
  - {x: 46, y: 2, z: 2}
  - {x: 47, y: 2, z: 2}
  - {x: 48, y: 1, z: 2}
  - {x: 49, y: 2, z: 2}
  - {x: 45, y: 4, z: 3}
  - {x: 46, y: 3, z: 3}
  - {x: 47, y: 2, z: 3}
  - {x: 48, y: 1, z: 3}
  - {x: 49, y: 2, z: 3}
  - {x: 45, y: 4, z: 4}
  - {x: 46, y: 3, z: 4}
  - {x: 47, y: 2, z: 4}
  - {x: 48, y: 1, z: 4}
  - {x: 49, y: 2, z: 4}
  - {x: 45, y: 3, z: 5}
  - {x: 46, y: 2, z: 5}
  - {x: 47, y: 1, z: 5}
  - {x: 48, y: 1, z: 5}
  - {x: 49, y: 2, z: 5}
  - {x: 45, y: 3, z: 6}
  - {x: 46, y: 2, z: 6}
  - {x: 47, y: 1, z: 6}
  - {x: 48, y: 1, z: 6}
  - {x: 49, y: 2, z: 6}
  - {x: 48, y: 1, z: 7}
  - {x: 49, y: 2, z: 7}
  - {x: 48, y: 1, z: 8}
  - {x: 49, y: 1, z: 8}
  - {x: 45, y: 4, z: 9}
  - {x: 46, y: 3, z: 9}
  - {x: 47, y: 2, z: 9}
  - {x: 48, y: 2, z: 9}
  - {x: 49, y: 2, z: 9}
  - {x: 45, y: 5, z: 10}
  - {x: 46, y: 4, z: 10}
  - {x: 49, y: 3, z: 10}
  - {x: 1, y: 2, z: 12}
  - {x: 2, y: 2, z: 12}
  - {x: 3, y: 2, z: 12}
  - {x: 4, y: 2, z: 12}
  - {x: 5, y: 3, z: 12}
  - {x: 6, y: 3, z: 12}
  - {x: 7, y: 3, z: 12}
  - {x: 8, y: 3, z: 12}
  - {x: 9, y: 4, z: 12}
  - {x: 10, y: 4, z: 12}
  - {x: 11, y: 4, z: 12}
  - {x: 12, y: 4, z: 12}
  - {x: 13, y: 4, z: 12}
  - {x: 14, y: 5, z: 12}
  - {x: 15, y: 5, z: 12}
  - {x: 16, y: 5, z: 12}
  - {x: 17, y: 5, z: 12}
  - {x: 18, y: 5, z: 12}
  - {x: 19, y: 5, z: 12}
  - {x: 20, y: 5, z: 12}
  - {x: 21, y: 5, z: 12}
  - {x: 22, y: 5, z: 12}
  - {x: 23, y: 5, z: 12}
  - {x: 9, y: 1, z: 3}
  - {x: 10, y: 1, z: 3}
  - {x: 11, y: 1, z: 3}
  - {x: 18, y: 1, z: 3}
  - {x: 19, y: 1, z: 3}
  - {x: 20, y: 1, z: 3}
  - {x: 21, y: 1, z: 3}
  - {x: 22, y: 1, z: 3}
  - {x: 23, y: 1, z: 3}
  - {x: 24, y: 1, z: 3}
  - {x: 25, y: 2, z: 3}
  - {x: 9, y: 2, z: 4}
  - {x: 10, y: 1, z: 4}
  - {x: 11, y: 1, z: 4}
  - {x: 18, y: 1, z: 4}
  - {x: 19, y: 1, z: 4}
  - {x: 20, y: 1, z: 4}
  - {x: 21, y: 1, z: 4}
  - {x: 22, y: 2, z: 4}
  - {x: 23, y: 2, z: 4}
  - {x: 24, y: 2, z: 4}
  - {x: 25, y: 3, z: 4}
  - {x: 19, y: 2, z: 5}
  - {x: 20, y: 1, z: 5}
  - {x: 21, y: 1, z: 5}
  - {x: 22, y: 2, z: 5}
  - {x: 23, y: 2, z: 5}
  - {x: 24, y: 2, z: 5}
  - {x: 25, y: 2, z: 5}
  - {x: 19, y: 3, z: 6}
  - {x: 20, y: 2, z: 6}
  - {x: 21, y: 2, z: 6}
  - {x: 22, y: 3, z: 6}
  - {x: 23, y: 3, z: 6}
  - {x: 24, y: 3, z: 6}
  - {x: 19, y: 4, z: 7}
  - {x: 20, y: 3, z: 7}
  - {x: 21, y: 3, z: 7}
  - {x: 22, y: 4, z: 7}
  - {x: 23, y: 4, z: 7}
  - {x: 19, y: 4, z: 8}
  - {x: 20, y: 3, z: 8}
  - {x: 21, y: 3, z: 8}
  - {x: 22, y: 4, z: 8}
  - {x: 23, y: 4, z: 8}
  - {x: 19, y: 5, z: 9}
  - {x: 20, y: 4, z: 9}
  - {x: 21, y: 4, z: 9}
  - {x: 22, y: 5, z: 9}
  - {x: 23, y: 5, z: 9}
  - {x: 24, y: 5, z: 9}
  - {x: 9, y: 3, z: 10}
  - {x: 10, y: 3, z: 10}
  - {x: 11, y: 3, z: 10}
  - {x: 12, y: 3, z: 10}
  - {x: 13, y: 3, z: 10}
  - {x: 14, y: 3, z: 10}
  - {x: 15, y: 3, z: 10}
  - {x: 16, y: 3, z: 10}
  - {x: 17, y: 3, z: 10}
  - {x: 18, y: 5, z: 10}
  - {x: 19, y: 5, z: 10}
  - {x: 20, y: 4, z: 10}
  - {x: 21, y: 4, z: 10}
  - {x: 22, y: 5, z: 10}
  - {x: 23, y: 5, z: 10}
  - {x: 9, y: 3, z: 11}
  - {x: 10, y: 3, z: 11}
  - {x: 11, y: 3, z: 11}
  - {x: 12, y: 3, z: 11}
  - {x: 13, y: 3, z: 11}
  - {x: 14, y: 4, z: 11}
  - {x: 15, y: 4, z: 11}
  - {x: 16, y: 4, z: 11}
  - {x: 17, y: 4, z: 11}
  - {x: 18, y: 5, z: 11}
  - {x: 19, y: 5, z: 11}
  - {x: 20, y: 5, z: 11}
  - {x: 21, y: 5, z: 11}
  - {x: 22, y: 5, z: 11}
  - {x: 23, y: 5, z: 11}
  - {x: 43, y: 1, z: 0}
  - {x: 44, y: 1, z: 0}
  - {x: 45, y: 2, z: 0}
  - {x: 22, y: 3, z: 14}
  - {x: 23, y: 3, z: 14}
  - {x: 24, y: 3, z: 14}
  - {x: 25, y: 3, z: 14}
  - {x: 26, y: 3, z: 14}
  - {x: 27, y: 3, z: 14}
  - {x: 28, y: 3, z: 14}
  - {x: 5, y: 1, z: 4}
  - {x: 6, y: 1, z: 4}
  - {x: 7, y: 1, z: 4}
  - {x: 8, y: 1, z: 4}
  - {x: 20, y: 2, z: 14}
  - {x: 21, y: 2, z: 14}
  - {x: 29, y: 2, z: 14}
  - {x: 30, y: 2, z: 14}
  - {x: 31, y: 2, z: 14}
  - {x: 32, y: 2, z: 14}
  - {x: 33, y: 2, z: 14}
  - {x: 34, y: 2, z: 14}
  - {x: 35, y: 2, z: 14}
  - {x: 36, y: 2, z: 14}
  - {x: 37, y: 2, z: 14}
  - {x: 38, y: 2, z: 14}
  - {x: 39, y: 2, z: 14}
  - {x: 14, y: 1, z: 14}
  - {x: 15, y: 1, z: 14}
  - {x: 16, y: 1, z: 14}
  - {x: 17, y: 1, z: 14}
  - {x: 18, y: 1, z: 14}
  - {x: 19, y: 1, z: 14}
  - {x: 40, y: 1, z: 14}
  - {x: 41, y: 1, z: 14}
  - {x: 5, y: 2, z: 9}
  - {x: 5, y: 2, z: 10}
  - {x: 6, y: 2, z: 10}
  - {x: 7, y: 2, z: 10}
  - {x: 8, y: 2, z: 10}
  - {x: 5, y: 2, z: 11}
  - {x: 6, y: 2, z: 11}
  - {x: 7, y: 2, z: 11}
  - {x: 8, y: 2, z: 11}
  - {x: 1, y: 1, z: 5}
  - {x: 2, y: 1, z: 5}
  - {x: 3, y: 1, z: 5}
  - {x: 4, y: 1, z: 5}
  - {x: 5, y: 1, z: 5}
  - {x: 1, y: 1, z: 6}
  - {x: 2, y: 1, z: 6}
  - {x: 3, y: 1, z: 6}
  - {x: 4, y: 1, z: 6}
  - {x: 5, y: 2, z: 6}
  - {x: 1, y: 1, z: 7}
  - {x: 2, y: 1, z: 7}
  - {x: 3, y: 1, z: 7}
  - {x: 4, y: 1, z: 7}
  - {x: 5, y: 1, z: 7}
  - {x: 1, y: 1, z: 8}
  - {x: 2, y: 1, z: 8}
  - {x: 3, y: 1, z: 8}
  - {x: 4, y: 1, z: 8}
  - {x: 5, y: 1, z: 8}
  - {x: 1, y: 1, z: 9}
  - {x: 2, y: 1, z: 9}
  - {x: 3, y: 1, z: 9}
  - {x: 4, y: 1, z: 9}
  - {x: 1, y: 1, z: 10}
  - {x: 2, y: 1, z: 10}
  - {x: 3, y: 1, z: 10}
  - {x: 4, y: 1, z: 10}
  - {x: 1, y: 1, z: 11}
  - {x: 2, y: 1, z: 11}
  - {x: 3, y: 1, z: 11}
  - {x: 4, y: 1, z: 11}
  - {x: 49, y: 1, z: 13}
  - {x: 43, y: 1, z: 14}
  - {x: 18, y: 1, z: 2}
  - {x: 19, y: 1, z: 2}
  - {x: 20, y: 1, z: 2}
  - {x: 21, y: 1, z: 2}
  - {x: 22, y: 1, z: 2}
  - {x: 23, y: 1, z: 2}
  - {x: 24, y: 1, z: 2}
  - {x: 25, y: 2, z: 2}
  - {x: 25, y: 1, z: 0}
  - {x: 26, y: 1, z: 0}
  - {x: 27, y: 1, z: 0}
  - {x: 28, y: 1, z: 0}
  - {x: 29, y: 1, z: 0}
  - {x: 30, y: 1, z: 0}
  - {x: 31, y: 1, z: 0}
  - {x: 32, y: 1, z: 0}
  - {x: 33, y: 1, z: 0}
  - {x: 34, y: 1, z: 0}
  - {x: 35, y: 1, z: 0}
  - {x: 36, y: 1, z: 0}
  - {x: 37, y: 1, z: 0}
  - {x: 38, y: 1, z: 0}
  - {x: 39, y: 1, z: 0}
  - {x: 40, y: 1, z: 0}
  - {x: 41, y: 1, z: 0}
  - {x: 25, y: 1, z: 1}
  - {x: 46, y: 1, z: 0}
  - {x: 47, y: 1, z: 0}
  - {x: 5, y: 5, z: 1}
  - {x: 6, y: 3, z: 1}
